{
	"data": {
		"questions": {
			"general": [{
				"questlabel": "Πόσο ικανοποιημένος/η μείνατε από την παραλαβή της παραγγελίας σας; - (Κλίμακα 1 έως 10)",
				"inputType": "num",
				"value": 0,
				"flag": "satisf"
			}, {
				"questlabel": "Πώς σας φάνηκε η τιμή της παραγγελίας σε σχέση με το μέγεθος του προϊόντος; - (Κλίμακα: Πολύ Οικονομική 1 - Πολύ ακριβή 10)",
				"inputType": "num",
				"value": 0,
				"flag": ""
			}, {
				"questlabel": "Θα αγοράζατε ξανά κάτι από την pizzafan; - (Κλίμακα 1-10: Όχι, ποτέ – Ναι, οπωσδήποτε)",
				"inputType": "num",
				"value": 0,
				"flag": ""
			}, {
				"questlabel": "Πόσο πιθανό είναι να συστήσετε την pizzafan σε κάποιο φίλο, μέλος οικογένειας ή συνάδελφο; - (Κλίμακα 0 έως 10)",
				"inputType": "num",
				"value": 0,
				"flag": "promo"
			}],

			"indicators": [{
				"questlabel": "Χρόνος παράδοσης",
				"inputType": "num",
				"value": 0
			}, {
				"questlabel": "Συσκευασία Προϊόντων",
				"inputType": "num",
				"value": 0
			}, {
				"questlabel": "Θερμοκρασία Προϊόντων",
				"inputType": "num",
				"value": 0
			}, {
				"questlabel": "Εμφάνιση Προϊόντων",
				"inputType": "num",
				"value": 0
			}, {
				"questlabel": "Γεύση προϊόντων",
				"inputType": "num",
				"value": 0
			}, {
				"questlabel": "Ποσότητα υλικών",
				"inputType": "num",
				"value": 0
			}, {
				"questlabel": "Συμπεριφορά προσωπικού",
				"inputType": "num",
				"value": 0
			}, {
				"questlabel": "Εμφάνιση προσωπικού",
				"inputType": "num",
				"value": 0
			},{
				"questlabel": "Ατμόσφαιρα καταστήματος",
				"inputType": "num",
				"value": 0
			}],
      "method": {
          "questlabel": "Αντιμετωπίσατε κάποιο πρόβλημα στο κατάστημα:",
          "comment": ""
        }
		}
	}
}
